<?xml version="1.0" encoding="utf-8"?>
<!-- Generator: Adobe Illustrator 21.1.0, SVG Export Plug-In . SVG Version: 6.00 Build 0)  -->
<svg version="1.1" id="Capa_1" xmlns="http://www.w3.org/2000/svg" xmlns:xlink="http://www.w3.org/1999/xlink" x="0px" y="0px"
	 viewBox="0 0 20.1 20" style="enable-background:new 0 0 20.1 20;" xml:space="preserve">
<style type="text/css">
	.st0{fill:#92C37C;}
</style>
<g>
	<path class="st0" d="M12.5,3.3l4.1,4.1L6.2,17.8l-4.1-4.1L12.5,3.3z M19.7,2.4l-1.8-1.8c-0.7-0.7-1.8-0.7-2.6,0l-1.7,1.7l4.1,4.1
		l2-2C20.2,3.8,20.2,2.9,19.7,2.4z M0,19.4c-0.1,0.3,0.2,0.6,0.6,0.6l4.6-1.1L1,14.8L0,19.4z"/>
</g>
</svg>
